{
    "X3": [
        "2006",
        "2010",
        "2014"
    ],
    "X5": [
        "2006",
        "2010",
        "2013"
    ],
    "X6": [
        "2007",
        "2012",
        "2014"
    ],
    "Q3": [
        "2011",
        "2014",
        "2017"
    ],
    "Q5": [
        "2008",
        "2012",
        "2017"
    ],
    "Q7": [
        "2005",
        "2009",
        "2015"
    ]
}